{
  "CacheSourceKey": "18b9ai7",
  "CachePdfKey": "18b9ai7/18b9ai7-40r808.pdf",
  "CacheXpzKey": "18b9ai7/18b9ai7-8wpchu.xpz",
  "CacheInfoKey": "18b9ai7/18b9ai7-8wpchu.json",
  "CacheCopyKey": null,
  "Document": "~/Uploads/Document//WorkFlow/10007/10020/14/DOC10013_1.jpg",
  "DocumentHandlerType": null,
  "DocumentHandlerParameters": null,
  "DocumentLocation": null,
  "DocumentFileName": "DOC10013_1.jpg",
  "InputOptions": {
    "Format": "Jpg",
    "Password": null
  },
  "PdfOutputOptions": {
    "Watermarks": [
      {
        "$type": "GleamTech.DocumentUltimate.TextWatermark, GleamTech.DocumentUltimate",
        "Text": "DocumentUltimate",
        "TextAlignment": "Left",
        "Font": null,
        "FontColor": "Red",
        "UseFontSize": false,
        "HorizontalAlignment": "Center",
        "VerticalAlignment": "Center",
        "HorizontalDistance": 0.0,
        "VerticalDistance": 0.0,
        "DistanceIsPercentage": false,
        "Width": 50.0,
        "Height": 50.0,
        "SizeIsPercentage": true,
        "Rotation": 0.0,
        "Opacity": 50.0,
        "InBackground": false,
        "AnnotationMode": false,
        "PrintVisible": true,
        "ScreenVisible": true,
        "PageRange": "all"
      }
    ],
    "FastWebViewEnabled": false,
    "Password": null,
    "Format": "Pdf"
  },
  "XpzOutputOptions": {
    "Password": "18b9ai7",
    "HighQualityEnabled": false,
    "Format": "Xpz"
  }
}